<<PMCA SPECTRUM>>
TAG - live_data
DESCRIPTION -
GAIN - 1
THRESHOLD - 3
LIVE_MODE - 0
PRESET_TIME - 600
LIVE_TIME - 600.000000
REAL_TIME - 602.546667
START_TIME - 01/20/2021 12:47:03
SERIAL_NUMBER - 4055
<<CALIBRATION>>
LABEL - Channel
142 662
245 1173
<<ROI>>
345 378
<<DATA>>
0
0
0
667
795
1329
1921
1687
1356
1435
1803
2187
2619
3150
3632
3906
4112
4323
4216
4320
4309
4112
3988
3722
3748
3678
3407
3324
3191
2986
2899
2722
2541
2482
2290
2249
2155
2050
1890
1893
1756
1746
1621
1533
1488
1434
1325
1317
1299
1244
1225
1173
1126
1044
1010
1004
914
859
823
823
710
719
700
586
621
598
563
547
554
485
463
487
436
444
425
398
394
373
345
365
333
325
301
279
294
254
279
269
257
259
239
190
221
232
241
217
215
220
201
219
187
205
190
190
210
184
239
175
187
199
179
198
174
171
153
157
141
151
131
143
170
136
141
147
124
136
128
152
133
114
127
123
134
122
103
102
124
105
101
90
101
98
92
85
88
85
72
89
82
81
93
82
62
80
75
86
80
84
82
55
77
69
71
96
82
82
71
69
71
60
82
67
62
71
74
72
61
72
71
61
60
78
58
64
56
64
63
63
53
60
65
56
76
70
66
59
52
50
59
59
43
75
74
70
56
51
59
50
62
57
46
41
49
47
39
56
49
47
46
52
45
38
53
35
49
47
37
41
50
48
35
46
49
50
36
37
36
46
53
48
50
59
35
37
40
34
45
30
39
36
39
46
45
40
38
50
36
26
39
38
36
33
30
30
32
45
36
32
35
20
32
23
31
25
25
31
24
28
29
30
25
21
32
26
37
37
28
35
35
28
38
38
41
27
40
36
47
50
49
42
57
38
43
57
35
43
44
56
44
30
31
30
29
33
28
24
24
21
31
18
21
25
29
20
22
20
24
24
25
18
26
22
19
19
25
19
14
26
16
15
20
12
16
17
11
17
14
18
26
14
24
17
11
12
15
19
12
19
16
21
12
15
26
17
14
16
13
18
18
14
4
7
21
16
15
17
15
12
13
15
7
10
9
16
17
22
13
12
10
15
12
10
16
12
15
9
9
9
15
8
7
8
10
5
14
7
12
13
11
12
8
5
9
14
6
11
5
10
12
8
6
10
9
12
15
8
12
8
7
7
8
7
12
8
13
12
12
9
17
12
7
9
10
10
15
13
14
17
17
8
7
5
8
11
9
9
15
9
8
9
9
7
12
7
10
9
9
5
6
9
6
9
5
6
3
9
3
8
6
4
5
4
5
6
4
8
12
5
6
7
8
3
5
3
5
5
0
0
0
0
0
0
0
0
0
0
0
0
0
0
0
0
